@startuml

skinparam state {
    FontColor          black
    AttributeFontColor black
    BackgroundColor    white
    BorderColor        black
    ArrowColor         black
}

state ClipsExecutive {
  PENDING -down-> WAITING  : invoke action
  RUNNING ---> EXECUTION_FAILED : skill fails or timeout
  EXECUTION_FAILED -left-> FAILED
  RUNNING ---> EXECUTION_SUCCEEDED : skill succeeds
}


[*] -down-> FORMULATED
FORMULATED -down-> PENDING : select


WAITING -down-> RUNNING
PENDING -down-> EXECUTION_SUCCEEDED : exogenous event
EXECUTION_FAILED -up-> PENDING : Retry

EXECUTION_SUCCEEDED --> SENSED_EFFECTS_WAIT : !wait-sensed
SENSED_EFFECTS_WAIT --> FAILED : expected events not observed
SENSED_EFFECTS_WAIT --> SENSED_EFFECTS_HOLD :sensed effects occurred
EXECUTION_SUCCEEDED ---> SENSED_EFFECTS_HOLD
SENSED_EFFECTS_HOLD --> EFFECTS_APPLIED  :apply non-sensed effects
EFFECTS_APPLIED --> [*]

@enduml
