@startuml

skinparam state {
    FontColor          black
    AttributeFontColor black
    BackgroundColor    white
    BorderColor        black
    ArrowColor         black
}

[*] -down-> FORMULATED : formulate

FORMULATED -down-> SELECTED : **select**
SELECTED -down-> EXPANDED  : **expand**\ninstantiate pre+eff
EXPANDED -down-> COMMITTED : **commit**
COMMITTED -down-> DISPATCHED : **dispatch**

state ExecutionStatus {
  state Outcome {
    SKIPPED:
    SUCCESS:
    ' [*] --> FAILURE
    FAILURE : Precondition
    FAILURE : Postcondition
    FAILURE : Invariant
    FAILURE : Parent
    INTERRUPTED:
  }

  [*] --> INACTIVE

  ' ---------------------
  ' inactive transitions
  INACTIVE --> WAITING : parentExecuting\n&parent
  INACTIVE --> SKIPPED : parentFinished\n|!parent

  ' ---------------------
  ' waiting transitions
  WAITING --> SKIPPED : !ancestor\n|skip\n|exit
  ' FINISHED is overloaded, so use FINISHED_EXEC
  SKIPPED --> FINISHED_EXEC
  WAITING -up-> WAITING : !start
  WAITING --> EXECUTING : parent\n&start\n&pre
  ' this is changed from the existing version b/c FAILING subsumes the original transition
  WAITING --> FAILURE : !pre

  ' ---------------------
  ' executing transitions
  EXECUTING: [var := expr]\n[issueCommand]
  EXECUTING -up-> EXECUTING : 4. !end
  EXECUTING --> FAILURE : 1. !parent\n3. !invariant
  EXECUTING --> INTERRUPTED : 2. exit
  ' EXECUTING --> SUCCESS : 5. post\n[&updateComplete]\n[&commandDone]\n[&childrenDone]
  INTERRUPTED --> FAILING
  SUCCESS --> INTERATION_ENDED
  EXECUTING --> FINISHING : 4. end
  FINISHING --> SUCCESS : post\n[&updateComplete]\n[&commandDone]\n[&childrenDone]
  FINISHING --> FAILURE : !post


  ' ---------------------
  ' failing transitions
  '  subsumes some transitions for executing empty nodes
  FAILING: [var := previous value]\n[abort command]\n[update]
  FAILING -up-> FAILING : [!completed]
  FAILURE --> FAILING
  FAILING --> INTERATION_ENDED
  FAILING --> FINISHED_EXEC : parentExit\n|parentFailed


  ' ---------------------
  ' INTERATION_ENDED transitions
  INTERATION_ENDED --> FINISHED_EXEC : !parent
  INTERATION_ENDED -up-> WAITING : repeat
  INTERATION_ENDED -up-> FINISHED_EXEC : !repeat
  INTERATION_ENDED -up-> INTERATION_ENDED : repeatUnknown

  ' ---------------------
  ' FINISHED_EXEC transitions
  FINISHED_EXEC -down-> FINISHED_EXEC : parent.waiting
  FINISHED_EXEC -up-> INACTIVE : reset

}

ExecutionStatus --> EVALUATED : **evaluate**
SELECTED --> EVALUATED : exogenous

DISPATCHED -left-> ExecutionStatus : **monitor**
EVALUATED -up-> DISPATCHED : onWait\nonRunning\n**continue**
EVALUATED -up-> EXPANDED : onTimeout\nonFail\n**replan**

EVALUATED -down-> FINISHED : onSuccess\n**finish**
EVALUATED -down-> [*] : onFail\n**drop**
FINISHED --> [*]

@enduml
